{
    "output": [
        "eDP-1",
        "HDMI-A-1"
    ],
    "layer": "top",
    "position": "top",
    "spacing": 2, // Gaps between modules (4px)
    "height": 26,
    // Choose the order of the modules
    "modules-left": [
        "hyprland/workspaces",
        "hyprland/window"
    ],
    "modules-right": [
        "mpd",
        "custom/weather",
        "cpu",
        "memory",
        "temperature",
        "custom/gpu-temp",
        "backlight",
        // "wireplumber",
        "pulseaudio",
        "battery",
        "custom/webcam",
        "custom/microphone",
        "custom/usb",
        "bluetooth",
        "network",
        "custom/notification",
        "clock"
    ],
    "hyprland/workspaces": {
        "format": "{icon}",
        "format-icons": {
            "1": " ",
            "2": " ",
            "3": " ",
            "4": " ",
            "5": " ",
            "6": " ",
            "7": "﬘ ",
            "8": " ",
            "9": " ",
            // "focused": ""
            // "default": ""
        },
        "sort-by-number": true,
        "on-scroll-up": "hyprctl dispatch workspace e+1",
        "on-scroll-down": "hyprctl dispatch workspace e-1",
        "on-click": "activate",
    },
    "hyprland/window": {
        "max-length": 70,
        "separate-outputs": false
    },
    "keyboard-state": {
        "numlock": true,
        "capslock": true,
        "format": "{icon} {name}",
        "format-icons": {
            "locked": "",
            "unlocked": ""
        }
    },
    "idle_inhibitor": {
        "format": "{icon}",
        "format-icons": {
            "activated": "",
            "deactivated": ""
        }
    },
    "tray": {
        "icon-size": 16,
        "spacing": 10
    },
    "clock": {
        "interval": 1,
        "format": "   {:%a, %B %d, %H:%M}",
        "format-alt": "  {:%A, %B %d, %Y (%R)}",
        "tooltip-format": "<big>{:%Y %B}</big>\n<tt><small>{calendar}</small></tt>",
    },
    "cpu": {
        "interval": 2,
        "tooltip": false,
        "format": "  {}%"
    },
    "memory": {
        "interval": 2,
        "tooltip": false,
        "format": "  {}%"
    },
    "temperature": {
        // "thermal-zone": 2,
        "hwmon-path": "/sys/class/hwmon/hwmon4/temp1_input",
        "critical-threshold": 80,
        "format-critical": "{icon} {temperatureC}°C",
        "format": "{icon} {temperatureC}°C",
        "format-icons": [
            " ",
            " ",
            " "
        ]
    },
    "backlight": {
        // "device": "acpi_video1",
        "format": "{icon} {percent}%",
        "format-icons": [
            "  ",
            "  ",
            "  ",
            "  ",
            "  ",
            "  ",
            "  ",
            "  ",
            "  "
        ]
    },
    "battery": {
        "states": {
            "good": 80,
            "warning": 25,
            "critical": 20
        },
        "format": "{icon} {capacity}%",
        "format-charging": "   {capacity}%",
        "format-plugged": "   {capacity}%",
        "format-charged": "   {capacity}%",
        "format-alt": "{icon} {time}",
        // "format-good": "", // An empty format will hide the module
        // "format-full": "",
        "format-icons": [
            "   ",
            "   ",
            "   ",
            "   ",
            "   "
        ]
    },
    "network": {
        // "interface": "wlan0",
        "format-wifi": " ",
        "format-ethernet": " ",
        "format-disconnected": "󰅛 ", //An empty format will hide the module.
        "tooltip-format-wifi": "   {essid} ({signalStrength}%) - {ifname} {ipaddr}",
        "tooltip-format-ethernet": " {ifname} {ipaddr}",
        "tooltip-format-disconnected": "Disconnected",
        // "max-length": 50
    },
    "pulseaudio": {
        "scroll-step": 2, // %, can be a float
        "format": "{icon} {volume}% {format_source}",
        "format-bluetooth": "{volume}% {icon} {format_source}",
        "format-bluetooth-muted": " {icon} {format_source}",
        "format-muted": " {format_source}",
        "format-source": "{volume}% ",
        "format-source-muted": "",
        "format-icons": {
            "headphone": "",
            "hands-free": "",
            "headset": "",
            "phone": "",
            "portable": "",
            "car": "",
            "default": [
                "  ",
                "  ",
                "  "
            ]
        },
        "on-click": "pavucontrol"
    },
    "wireplumber": {
        "format": "墳   {volume}%",
        "format-muted": "🔇",
        "on-click": "alacritty --command pulsemixer",
        // "format-icons": [
        //     "",
        //     "",
        //     ""
        // ]
    },
    "mpd": {
        "tooltip": false,
        "format": "{stateIcon} {artist} - {album} - {title} ({elapsedTime:%M:%S}/{totalTime:%M:%S})",
        "format-disconnected": "ﳌ",
        "format-stopped": "",
        "state-icons": {
            "playing": "",
            "paused": ""
        }
    },
    "custom/weather": {
        "exec": "$HOME/.config/waybar/custom/weather 2> /dev/null",
        "interval": 3600
    },
    "custom/gpu-temp": {
        "exec": "$HOME/.config/waybar/custom/gpu-temp 2> /dev/null",
        "interval": 2
    },
    "custom/webcam": {
        "exec": "$HOME/.config/waybar/custom/webcam 2> /dev/null",
        "interval": 2
    },
    "custom/microphone": {
        "exec": "$HOME/.config/waybar/custom/microphone 2> /dev/null",
        "interval": 2
    },
    "custom/usb": {
        "exec": "$HOME/.config/waybar/custom/usb 2> /dev/null",
        "interval": 2
    },
    "custom/notification": {
        "exec": "$HOME/.config/waybar/custom/notification 2> /dev/null",
        "on-click": "dunstctl set-paused toggle",
        "interval": 2
    },
}
